MonkeyLearn Sentiment Analysis
…
dat_tokens_unnested_tfidf <- 
  dat_tokens_unnested_counts %>% 
  bind_tf_idf(word, doc_uuid, n_words_this_doc)

A question we might be interested in is: which words are most distinctive to each category?

dat_tokens_unnested_tfidf %>% 
  unnest() %>% 
  group_by(category) %>% 
  filter(tf_idf == max(tf_idf)) %>% 
  select(word, word_sentiment, category, tf_idf) %>% 
  distinct(word, category, tf_idf) %>% 
  arrange(category, word)

## # A tibble: 22 x 3
## # Groups:   category [21]
##    word         category                tf_idf
##    <chr>        <chr>                    <dbl>
##  1 perfected    Attachments-Sharing      0.784
##  2 clumsy       Calls                    0.391
##  3 break        Channels                 0.607
##  4 conducive    Customer Support         0.454
##  5 intelligence Desktop                  0.633
##  6 patience     Ease of Use              0.945
##  7 trouble      Emojis                   0.427
##  8 amazed       Feedback-Recommendation  0.672
##  9 smoothly     General                  0.940
## 10 multitude    Groups                   0.588
## # ... with 12 more rows
…
